{
    "column_build": "Build szám:",
    "column_files": "Fájlok:",
    "column_version": "Verzió:",
    "column_title": "Cím:",
    "column_timestamp": "Dátum és idő:",
    "copyright": "Copyright © 2015 - Mladen Mijatov és más közreműködők.",
    "description": "Kétpaneles fájlkezelő",
    "description_customizable": "Sok beállítási lehetőség, hogy a programot igazán a magad kedve szerint állíthassa be.",
    "description_emblems": "Vizuálisan is jelölje meg a fájljait és könyvtárait a gyors eléréshez.",
    "description_keyboard": "Teljesen a billentyűzettel való használathoz optimalizált.",
    "description_python": "Könnyen bővíthető Python és GTK+ segítségével.",
    "description_sessions": "Fülek együttese minden alkalomra.",
    "description_tabs": "Nagyfokú rugalmasság a mindennapi műveletek során egyszerű kezelőfelületen.",
    "description_terminal": "Gyors parancssori elérés terminálfülek, VTE vagy külső terminál segítségével.",
    "description_threading": "Jobb párhuzamos működés a teljes többszálúság támogatásával.",
    "feature_customizable": "Testreszabható",
    "feature_emblems": "Emblémák",
    "feature_keyboard": "Billentyűzet-központú",
    "feature_python": "Python és GTK+",
    "feature_sessions": "Munkamenetek",
    "feature_tabs": "Füles felület",
    "feature_terminal": "Beépített terminál",
    "feature_threading": "Többszálú",
    "label_call_to_action": "Letöltés",
    "label_version": "Jelenlegi verzió:",
    "license": "A GNU Általános Nyilvános Licenc alatt kiadva.",
    "logo_copyright": "Minden terméknév, amit ezen a weboldalon használunk, az egyes tulajdonosaik védjegyei, és semmilyen módon nincs kapcsolatban a Sunflower-el vagy a projektben résztvevő emberekkel. Ezek az egyéb gyártói védjegyek kizárólag a gyártó termékeinek azonosítására szolgálnak.",
    "menu_bugs": "Hibák",
    "menu_contact": "Kapcsolat",
    "menu_download": "Letöltés",
    "menu_mailing_list": "Levelezési lista",
    "menu_plugins": "Bővítmények",
    "menu_screenshots": "Képernyőképek",
    "menu_source": "Forráskód",
    "menu_translations": "Fordítások",
    "menu_news": "Hírek",
    "platform_arch": "Arch",
    "platform_centos": "CentOS",
    "platform_debian": "Debian",
    "platform_elementary": "elementary",
    "platform_fedora": "Fedora",
    "platform_gentoo": "Gentoo",
    "platform_mageia": "Mageia",
    "platform_mandriva": "Mandriva",
    "platform_mint": "Linux Mint",
    "platform_opensuse": "OpenSUSE",
    "platform_pclinuxos": "PCLinuxOS",
    "platform_redhat": "RedHat",
    "platform_tar": "Archív",
    "platform_ubuntu": "Ubuntu",
    "release_fresh": "Friss a repo-ból",
    "release_latest": "Legutolsó kiadás",
    "release_source": "Forráskód",
    "site_title": "Sunflower",
    "software": "Sunflower",
    "title_download": "Letöltés",
    "title_features": "Jellemzőkk",
    "title_screenshots": "Képernyőképek",
    "title_versions": "Minden változat",
    "title_news": "Minden bejegyzés",
    "version": "Verzió:&nbsp;",
    "version_latest": "legfrissebb",
    "version_prefix": "Válassza ki az operációs rendszert és a disztribúciót, amihez a&nbsp;",
    "version_suffix": "&nbsp;a Sunflower le lesz töltve. Ha az ön változata nincs itt, próbálja meg az általános csomagot letölteni.",
    "read_news": "Tovább"
}