{
    "column_build": "Podwersja:",
    "column_files": "Pliki:",
    "column_version": "Wersja:",
    "column_title": "Tytuł:",
    "column_timestamp": "Data i czas:",
    "copyright": "Copyright &copy; 2015. Mladen Mijatov i kontrybutorzy.",
    "description": "Dwupanelowy menedżer plików",
    "description_customizable": "Wielość opcji pomoże dostosować program do własnych potrzeb.",
    "description_emblems": "Wizualne oznaczanie plików i katalogów",
    "description_keyboard": "W pełni zoptymalizowany dla użytkowników klawiatur.",
    "description_python": "Łatwo rozszerzalny dzięki Pythonowi i GTK+.",
    "description_sessions": "Zastawy kart na każdą okazję.",
    "description_tabs": "Więcej elastyczności na co dzień dzięki prostemu interfejsowi.",
    "description_terminal": "Szyki dostęp do linii poleceń dzięki wbudowanym i zewnętrznym terminalom.",
    "description_threading": "Ulepszona wielozadaniowość i pełne wsparcie dla wielowątkowości.",
    "feature_customizable": "Konfigurowalny",
    "feature_emblems": "Emblematy",
    "feature_keyboard": "Klawiatura w centrum uwagi",
    "feature_python": "Python i GTK+",
    "feature_sessions": "Sesje",
    "feature_tabs": "Karty",
    "feature_terminal": "Wbudowany terminal",
    "feature_threading": "Wielowątkowość",
    "label_call_to_action": "Pobierz",
    "label_version": "Obecna wersja:",
    "license": "Rozpowszechnianie na licencji GNU General Public License.",
    "logo_copyright": "Wszystkie użyte na tej stronie nazwy produktów są zastrzeżonymi znakami handlowymi, a ich właściciele nie są w żaden sposób związani z menedżerem plików Sunflower ani ludźmi zaangażowanymi w ten projekt. Znaki te użyte zostały jedynie w celu ułatwienia identyfikacji tych produktów.",
    "menu_bugs": "Błędy",
    "menu_contact": "Kontakt",
    "menu_download": "Pobieranie",
    "menu_mailing_list": "Lista mailingowa",
    "menu_plugins": "Wtyczki",
    "menu_screenshots": "Zrzuty ekranu",
    "menu_source": "Kod źródłowy",
    "menu_translations": "Tłumaczenia",
    "menu_news": "Nowinki",
    "platform_arch": "Arch",
    "platform_centos": "CentOS",
    "platform_debian": "Debian",
    "platform_elementary": "elementary",
    "platform_fedora": "Fedora",
    "platform_gentoo": "Gentoo",
    "platform_mageia": "Mageia",
    "platform_mandriva": "Mandriva",
    "platform_mint": "Linux Mint",
    "platform_opensuse": "OpenSUSE",
    "platform_pclinuxos": "PCLinuxOS",
    "platform_redhat": "RedHat",
    "platform_tar": "archiwum",
    "platform_ubuntu": "Ubuntu",
    "release_fresh": "Fresh from repo",
    "release_latest": "Latest release",
    "release_source": "Get source",
    "site_title": "Sunflower",
    "software": "Sunflower",
    "title_download": "Pobierz",
    "title_features": "Ficzery",
    "title_screenshots": "Zrzuty ekranu",
    "title_versions": "Wszystkie wersje",
    "title_news": "Wszystkie wpisy",
    "version": "Wersja:&nbsp;",
    "version_latest": "latest",
    "version_prefix": "Wybierz system operacyjny i dystrybucję dla której zostanie ściągnięty menedżer plików Sunflower w wersji&nbsp;",
    "version_suffix": ". Jeśli Twoja dystrybucja nie została ujęta spróbuj ściągnąć generyczne archiwum.",
    "read_news": "Więcej"
}